…
## Problem 1

First, we read the data.

``` r
# In this code chunk, we will read the dataset iris
iris_with_missing = 
  iris %>% 
  map_df(~replace(.x, sample(1:150, 20), NA)) %>%
  mutate(Species = as.character(Species))

# display
iris_with_missing
## # A tibble: 150 x 5
##    Sepal.Length Sepal.Width Petal.Length Petal.Width Species
##           <dbl>       <dbl>        <dbl>       <dbl> <chr>  
##  1          5.1         3.5          1.4         0.2 setosa 
##  2          4.9         3            1.4         0.2 setosa 
##  3          4.7         3.2          1.3         0.2 setosa 
##  4          4.6         3.1          1.5        NA   setosa 
##  5          5           3.6          1.4         0.2 setosa 
##  6          5.4         3.9          1.7         0.4 setosa 
##  7         NA           3.4          1.4         0.3 setosa 
##  8          5           3.4          1.5         0.2 setosa 
##  9          4.4         2.9          1.4         0.2 setosa 
## 10          4.9         3.1         NA           0.1 setosa 
## # … with 140 more rows
```
…
# fill the missing data
iris_without_missing <- map_df(.x = iris_with_missing, ~ fill_missing(.x))

# display
iris_without_missing
## # A tibble: 150 x 5
##    Sepal.Length Sepal.Width Petal.Length Petal.Width Species
##           <dbl>       <dbl>        <dbl>       <dbl> <chr>  
##  1         5.1          3.5         1.4         0.2  setosa 
##  2         4.9          3           1.4         0.2  setosa 
##  3         4.7          3.2         1.3         0.2  setosa 
##  4         4.6          3.1         1.5         1.19 setosa 
##  5         5            3.6         1.4         0.2  setosa 
##  6         5.4          3.9         1.7         0.4  setosa 
##  7         5.82         3.4         1.4         0.3  setosa 
##  8         5            3.4         1.5         0.2  setosa 
##  9         4.4          2.9         1.4         0.2  setosa 
## 10         4.9          3.1         3.77        0.1  setosa 
## # … with 140 more rows
```
…
